Value	Longitude	Latitude
1	43.072476	-89.404595
1	43.0706	-89.400017
3	43.071512	-89.406696
1	43.071519	-89.408644
1	43.071583	-89.404473
2	43.071858	-89.41021
1	43.072577	-89.406202
1	43.073869	-89.410764
4	43.07419	-89.400124
3	43.07483	-89.405014
7	43.075502	-89.406753
1	43.075679	-89.41028
1	43.075731	-89.408771
1	43.075882	-89.400986
1	43.075956	-89.411653
5	43.076424	-89.40527
1	43.076521	-89.411314
1	43.07712	-89.41226
1	43.078085	-89.41072
